…
The `instacart` dataset includes 15 variables of 1384617 observations.
The datset includes information such as `order_id`, which is the order
number assigned to a particular user, identified by `user_id`. It
includes timing of the order, including the day of week
(`order_dow), the hour of the order (`order_hour_od_day`) and the amount of time since a previous order was placed by the user (`days_since_prior_order`). It also includes the`product_name`, the product`aisle`and the`department\`
the product came from. In total, there are 134 aisles, with the fresh
vegetables and fresh fruits aisles being the mostly highly ordered from.

``` r
instacart |> 
  count(aisle_id)
```

    ## # A tibble: 134 × 2
    ##    aisle_id     n
    ##       <int> <int>
    ##  1        1  2936
    ##  2        2  3873
    ##  3        3 17449
    ##  4        4  9917
    ##  5        5  2905
    ##  6        6  1795
    ##  7        7  1526
    ##  8        8  1501
    ##  9        9  9736
    ## 10       10   448
    ## # ℹ 124 more rows

``` r
instacart |> 
  count(aisle_id) |> 
  arrange(desc(n))
```

    ## # A tibble: 134 × 2
    ##    aisle_id      n
    ##       <int>  <int>
    ##  1       83 150609
    ##  2       24 150473
    ##  3      123  78493
    ##  4      120  55240
    ##  5       21  41699
    ##  6      115  36617
    ##  7       84  32644
    ##  8      107  31269
    ##  9       91  26240
    ## 10      112  23635
    ## # ℹ 124 more rows
…
